@startuml

title __DISARTATIE's Class Diagram__\n

  namespace unitbv.ro.disartatie {
    class unitbv.ro.disartatie.Disartatie {
        + onCreate()
    }
  }
  

  unitbv.ro.disartatie.Disartatie -up-|> android.app.Application


right footer


PlantUML diagram generated by SketchIt! (https://bitbucket.org/pmesmeur/sketch.it)
For more information about this tool, please contact philippe.mesmeur@gmail.com
endfooter

@enduml
